\relax 
\@writefile{toc}{\contentsline {section}{\numberline {1}Data Link Layer Standard}{3}}
\@writefile{toc}{\contentsline {subsection}{\numberline {1.1}Services}{3}}
\@writefile{toc}{\contentsline {subsection}{\numberline {1.2}Framing}{3}}
\@writefile{toc}{\contentsline {subsubsection}{\numberline {1.2.1}Header and Footer Bytes}{3}}
\@writefile{toc}{\contentsline {subsubsection}{\numberline {1.2.2}Control Bytes}{3}}
\@writefile{lot}{\contentsline {table}{\numberline {1}{\ignorespaces A table showing the location of the control bits in the high control byte.}}{3}}
\newlabel{tab:CONTH}{{1}{3}}
\@writefile{lot}{\contentsline {table}{\numberline {2}{\ignorespaces A table showing the location of the control bits in the low control byte.}}{3}}
\newlabel{tab:CONTL}{{2}{3}}
\@writefile{toc}{\contentsline {subsubsection}{\numberline {1.2.3}Address Bytes}{3}}
\@writefile{toc}{\contentsline {subsubsection}{\numberline {1.2.4}Checksum Bytes}{3}}
\@writefile{toc}{\contentsline {subsection}{\numberline {1.3}Flow Control}{3}}
\newlabel{Flow Control}{{1.3}{3}}
\@writefile{toc}{\contentsline {subsection}{\numberline {1.4}Error Control}{4}}
\newlabel{Error Control}{{1.4}{4}}
\@writefile{toc}{\contentsline {subsubsection}{\numberline {1.4.1}Even Parity (Compulsory)}{4}}
\@writefile{toc}{\contentsline {subsubsection}{\numberline {1.4.2}Cyclic Redundancy Check (Optional)}{4}}
\@writefile{toc}{\contentsline {subsection}{\numberline {1.5}Media Access Control}{4}}
\newlabel{Media Access Control}{{1.5}{4}}
\@writefile{toc}{\contentsline {section}{\numberline {2}Physical Layer Standard}{4}}
\@writefile{toc}{\contentsline {section}{\numberline {3}Design}{5}}
\@writefile{toc}{\contentsline {subsection}{\numberline {3.1}Toolchain}{5}}
\@writefile{toc}{\contentsline {subsection}{\numberline {3.2}Data Link Layer}{5}}
\@writefile{toc}{\contentsline {subsubsection}{\numberline {3.2.1}Framing}{5}}
\@writefile{toc}{\contentsline {subsubsection}{\numberline {3.2.2}Bit Stuffing}{5}}
\@writefile{lof}{\contentsline {figure}{\numberline {1}{\ignorespaces A flow chart showing the algorithm used for bit stuffing.}}{5}}
\newlabel{fig:stuffing}{{1}{5}}
\@writefile{toc}{\contentsline {subsubsection}{\numberline {3.2.3}Error Control}{5}}
\@writefile{toc}{\contentsline {subsubsection}{\numberline {3.2.4}Transmission}{6}}
\newlabel{sec:Transmission}{{3.2.4}{6}}
\@writefile{lof}{\contentsline {figure}{\numberline {2}{\ignorespaces A flow chart showing the algorithm used for transmitting a network packet.}}{6}}
\newlabel{fig:tx}{{2}{6}}
\@writefile{toc}{\contentsline {subsubsection}{\numberline {3.2.5}Receive}{6}}
\@writefile{lof}{\contentsline {figure}{\numberline {3}{\ignorespaces A flow chart showing the algorithm used for receiving a frame from the physical layer.}}{6}}
\newlabel{fig:rx}{{3}{6}}
\@writefile{toc}{\contentsline {subsection}{\numberline {3.3}Physical Layer}{6}}
\@writefile{toc}{\contentsline {section}{\numberline {4}Testing, Results and Analysis}{7}}
\@writefile{toc}{\contentsline {subsection}{\numberline {4.1}Error Correction (\texttt  {Error.c})}{7}}
\@writefile{toc}{\contentsline {subsection}{\numberline {4.2}Bit Stuffing (\texttt  {Stuff.c})}{7}}
\@writefile{toc}{\contentsline {subsection}{\numberline {4.3}Flow Control (\texttt  {DLL.c})}{7}}
\@writefile{toc}{\contentsline {section}{\numberline {5}Critical Reflection and Evaluation}{8}}
\@writefile{toc}{\contentsline {subsection}{\numberline {5.1}Personal}{8}}
\@writefile{toc}{\contentsline {subsection}{\numberline {5.2}Within Team and Peer-Team}{8}}
